[{"storeid":13000,"pk":1211891,"businessId":759004,"firstName":"fdf","lastName":"fdgd","businessName":"123erererer","address":"asdfasdf",
"address2":"","county":"","city":"asdFasd","state":"KS","zip":"32342","zip4":null,"phone":"1234567890","tollfree":"","industry":"Veteran Industry",
"website":"","jobTitle":"gx","latitude":null,"longitude":null,"actualLocationEmploymentSize":null,"secondaryAddress":null,"secondaryCity":null,"secondaryState":null,
"secondaryZip":null,"secondaryZip4":null,"isDistrictConfirmed":true,"outreachPk":1,"isCharityInitiated":false,"isCommunityInitiated":false,"businessType":1},
{"storeid":156,"pk":1351955,"businessId":852208,"firstName":"David0061","lastName":"Warner0061","businessName":"AMERICAN HEALTH ASSOCIATION0061",
"address":"900 RALSTON AVE","address2":"Address20061","county":"BELMONT","city":"California","state":"PR","zip":"94002","zip4":"","phone":"1234567890",
"tollfree":"8936190403","industry":"HEALTH","website":"www.health.com","jobTitle":"Job Title","latitude":null,"longitude":null,"actualLocationEmploymentSize":60,
"secondaryAddress":null,"secondaryCity":null,"secondaryState":null,"secondaryZip":null,"secondaryZip4":null,"isDistrictConfirmed":true,"outreachPk":1,"isCharityInitiated":false,
"isCommunityInitiated":false,"businessType":1}]
